{
    "textures": {
        "particle": "#layer0"
    },
    "elements": [
        {   "from": [ 0, 0, 0 ],
            "to": [ 16, 16, 16 ],
            "shade": false,
            "faces": {
                "south":   { "uv": [ 0, 0, 9, 9 ], "texture": "#layer0" }
            }
        }
    ],
    "display": {
        "gui": {
            "rotation": [ 0, 0, 0 ],
            "translation": [ 0, 0, 0],
            "scale":[ 1.125, 1.125, 1.25 ]
        }
    }
}
