{
    "parent": "item/generated",
    "textures": {
        "layer0": "items/dye_powder_gray"
    },
    "display": {
        "thirdperson_righthand": {
            "rotation": [ 0, -90, 0 ],
            "translation": [ 0, 0.0, -3.75 ],
            "scale": [ 0.0, 0.0, 0.0 ]        },
        "thirdperson_lefthand": {
            "rotation": [ 0, 90, -55 ],
            "translation": [ 0, 4.0, 0.5 ],
            "scale": [ 0.0, 0.0, 0.0 ]
        },
        "firstperson_righthand": {
            "rotation": [ 0, -90, 0 ],
            "translation": [ 1.13, 3.2, 1.13 ],
            "scale": [ 0.0, 0.0, 0.0 ]        },
        "firstperson_lefthand": {
            "rotation": [ 0, 90, -25 ],
            "translation": [ 1.13, 3.2, 1.13 ],
            "scale": [ 0.0, 0.0, 0.0 ]
        }
    }
}
