{
    "parent": "item/generated",
    "textures": {
      "layer0": "gui/endonauts/button_info"
    },
    "display": {
        "gui": {
            "rotation": [ 0, 0, 0 ],
            "translation": [ 0, 0, 0],
            "scale":[ 1.0, 1.0, 1.0 ]
        }
    }
}
