{   "parent": "block/block",
    "display": {
        "gui": {
            "rotation": [ 0, 180, 0 ],
            "translation": [ 0, 0, 0],
            "scale":[ 1, 1, 1 ]
        },
        "head": {
            "rotation": [ -60, 0, 0 ],
            "translation": [ 0, 5, -9],
            "scale":[ 1, 1, 1]
        },
        "thirdperson_righthand": {
            "rotation": [ 0, 90, 0 ],
            "translation": [ 0, 0.5, -0.9],
            "scale": [ 1, 1, 1 ]
        },
        "firstperson_righthand": {
            "rotation": [ 0, 90, 0 ],
            "translation": [ 0, 1.25, 0 ],
            "scale": [ 0.80, 0.8, 0.80 ]
        }
    },
    "ambientocclusion": false,
    "textures": {
        "rocket": "items/ender_rocket",
        "stand": "items/rocket_launcher"
    },
    "elements": [
        {
            "from": [ 0, 9, 7 ],
            "to": [ 15, 11, 9 ],
            "faces": {
                "up":    { "uv": [ 1.01, 14.01, 15.99, 15.99 ], "texture": "#rocket", "rotation": 180 },
                "down":  { "uv": [ 1.01, 14.01, 15.99, 15.99 ], "texture": "#rocket", "rotation": 180 },
                "north": { "uv": [ 1.01, 14.01, 15.99, 15.99 ], "texture": "#rocket" },
                "south": { "uv": [ 1.01, 14.01, 15.99, 15.99 ], "texture": "#rocket", "rotation": 180 },
                "west":  { "uv": [ 2.01, 8.01, 4.99, 10.99 ], "texture": "#rocket" },
                "east":  { "uv": [ 0.01, 11.01, 1.99, 12.99 ], "texture": "#rocket" }
            }
        },
        {
            "from": [ 15, 9.5, 7.5 ],
            "to": [ 16, 10.5, 8.5 ],
            "faces": {
                "up":    { "uv": [ 0.01, 0.01, 0.99, 0.99 ], "texture": "#rocket", "rotation": 180 },
                "down":  { "uv": [ 0.01, 0.01, 0.99, 0.99 ], "texture": "#rocket", "rotation": 180 },
                "north": { "uv": [ 0.01, 0.01, 0.99, 0.99 ], "texture": "#rocket" },
                "south": { "uv": [ 0.01, 0.01, 0.99, 0.99 ], "texture": "#rocket", "rotation": 180 },
                "west":  { "uv": [ 0.01, 0.01, 0.99, 0.99 ], "texture": "#rocket" },
                "east":  { "uv": [ 0.01, 0.01, 0.99, 0.99 ], "texture": "#rocket" }
            }
        },
        {
            "from": [ 0, 6, 7.5 ],
            "to": [ 5, 14, 8.5 ],
            "faces": {
                "up":    { "uv": [ 13.01, 0.01, 13.99, 4.99 ], "texture": "#rocket", "rotation": 90 },
                "down":  { "uv": [ 13.01, 0.01, 13.99, 4.99 ], "texture": "#rocket", "rotation": 90 },
                "north": { "uv": [ 7.01, 2.01, 11.99, 9.99 ], "texture": "#rocket"},
                "south": { "uv": [ 7.01, 2.01, 11.99, 9.99 ], "texture": "#rocket", "rotation": 180},
                "west":  { "uv": [ 13.01, 2.01, 13.99, 9.99 ], "texture": "#rocket" },
                "east":  { "uv": [ 5.01, 2.01, 5.99, 9.99 ], "texture": "#rocket" }
            }
        },
        {
            "from": [ 3, 7, 7.5 ],
            "to": [ 4, 13, 8.5 ],
            "faces": {
                "up":    { "uv": [ 0.01, 0.01, 0.99, 0.99 ], "texture": "#rocket", "rotation": 90 },
                "down":  { "uv": [ 0.01, 0.01, 0.99, 0.99 ], "texture": "#rocket", "rotation": 90 },
                "east":  { "uv": [ 0.01, 0.01, 0.99, 0.99 ], "texture": "#rocket" }
            }
        },
        {
            "from": [ 2, 6, 7.5 ],
            "to": [ 3, 14, 8.5 ],
            "faces": {
                "east":  { "uv": [ 0.01, 0.01, 0.99, 0.99 ], "texture": "#rocket" }
            }
        },
        {
            "from": [ 4, 8, 7.5 ],
            "to": [ 5, 12, 8.5 ],
            "faces": {
                "up":    { "uv": [ 0.01, 0.01, 0.99, 0.99 ], "texture": "#rocket", "rotation": 90 },
                "down":  { "uv": [ 0.01, 0.01, 0.99, 0.99 ], "texture": "#rocket", "rotation": 90 }
            }
        },
        
        
        
        {
            "from": [ 0, 9.5, 4 ],
            "to": [ 5, 10.5, 12 ],
            "faces": {
                "north":    { "uv": [ 13.01, 0.01, 13.99, 4.99 ], "texture": "#rocket", "rotation": 270 },
                "south":  { "uv": [ 13.01, 0.01, 13.99, 4.99 ], "texture": "#rocket", "rotation": 90 },
                "up": { "uv": [ 7.01, 2.01, 11.99, 9.99 ], "texture": "#rocket", "rotation" : 180},
                "down": { "uv": [ 7.01, 2.01, 11.99, 9.99 ], "texture": "#rocket", "rotation": 180},
                "west":  { "uv": [ 13.01, 2.01, 13.99, 9.99 ], "texture": "#rocket", "rotation": 90 },
                "east":  { "uv": [ 5.01, 2.01, 5.99, 9.99 ], "texture": "#rocket", "rotation": 90 }
            }
        },
        {
            "from": [ 3, 9.5, 5 ],
            "to": [ 4, 10.5, 11 ],
            "faces": {
                "north":    { "uv": [ 0.01, 0.01, 0.99, 0.99 ], "texture": "#rocket", "rotation": 90 },
                "south":  { "uv": [ 0.01, 0.01, 0.99, 0.99 ], "texture": "#rocket", "rotation": 90 },
                "east":  { "uv": [ 0.01, 0.01, 0.99, 0.99 ], "texture": "#rocket" }
            }
        },
        {
            "from": [ 2, 9.5, 4 ],
            "to": [ 3, 10.5, 12 ],
            "faces": {
                "east":  { "uv": [ 0.01, 0.01, 0.99, 0.99 ], "texture": "#rocket" }
            }
        },
        {
            "from": [ 4, 9.5, 6 ],
            "to": [ 5, 10.5, 10 ],
            "faces": {
                "north":    { "uv": [ 0.01, 0.01, 0.99, 0.99 ], "texture": "#rocket", "rotation": 90 },
                "south":  { "uv": [ 0.01, 0.01, 0.99, 0.99 ], "texture": "#rocket", "rotation": 90 }
            }
        },
        {
            "from": [ 5, 8, 7 ],
            "to": [ 16, 9, 9 ],
            "faces": {
                "up":    { "uv": [ 0.01, 10.01, 10.99, 10.99 ], "texture": "#stand", "rotation": 180 },
                "down":  { "uv": [ 0.01, 10.01, 10.99, 10.99 ], "texture": "#stand", "rotation": 180 },
                "north": { "uv": [ 0.01, 10.01, 10.99, 10.99 ], "texture": "#stand" },
                "south": { "uv": [ 0.01, 10.01, 10.99, 10.99 ], "texture": "#stand", "rotation": 180 },
                "west":  { "uv": [ 0.01, 10.01, 10.99, 10.99 ], "texture": "#stand" },
                "east":  { "uv": [ 0.01, 10.01, 10.99, 10.99 ], "texture": "#stand" }
            }
        },
        {
            "from": [ 13, 9, 6 ],
            "to": [ 14, 10, 10 ],
            "faces": {
                "up":    { "uv": [ 2.01, 9.01, 2.99, 9.99 ], "texture": "#stand", "rotation": 180 },
                "down":  { "uv": [ 2.01, 9.01, 2.99, 9.99 ], "texture": "#stand", "rotation": 180 },
                "north": { "uv": [ 2.01, 9.01, 2.99, 9.99 ], "texture": "#stand" },
                "south": { "uv": [ 2.01, 9.01, 2.99, 9.99 ], "texture": "#stand", "rotation": 180 },
                "west":  { "uv": [ 2.01, 9.01, 2.99, 9.99 ], "texture": "#stand" },
                "east":  { "uv": [ 2.01, 9.01, 2.99, 9.99 ], "texture": "#stand" }
            }
        },
        {
            "from": [ 5, 9, 6 ],
            "to": [ 6, 10, 10 ],
            "faces": {
                "up":    { "uv": [ 2.01, 9.01, 2.99, 9.99 ], "texture": "#stand", "rotation": 180 },
                "down":  { "uv": [ 2.01, 9.01, 2.99, 9.99 ], "texture": "#stand", "rotation": 180 },
                "north": { "uv": [ 2.01, 9.01, 2.99, 9.99 ], "texture": "#stand" },
                "south": { "uv": [ 2.01, 9.01, 2.99, 9.99 ], "texture": "#stand", "rotation": 180 },
                "west":  { "uv": [ 2.01, 9.01, 2.99, 9.99 ], "texture": "#stand" },
                "east":  { "uv": [ 2.01, 9.01, 2.99, 9.99 ], "texture": "#stand" }
            }
        },
        {
            "from": [ 5, 5, 7.5 ],
            "to": [ 7, 8, 8.5 ],
            "faces": {
                "down":  { "uv": [ 9.01, 13.01, 10.99, 13.99 ], "texture": "#stand", "rotation": 180 },
                "north": { "uv": [ 9.01, 11.01, 10.99, 13.99 ], "texture": "#stand" },
                "south": { "uv": [ 11.01, 11.01, 8.99, 13.99 ], "texture": "#stand" },
                "west":  { "uv": [ 10.01, 11.01, 10.99, 13.99 ], "texture": "#stand" },
                "east":  { "uv": [ 9.01, 11.01, 9.99, 12.99 ], "texture": "#stand" }
            }
        }        
    ]
}
