{
    "parent": "item/18_base",
    "textures": {
      "layer0": "gui/endonauts/button_spectate_2"
    },
    "display": {
        "gui": {
            "rotation": [ 0, 0, 0 ],
            "translation": [ 0, 0, 0],
            "scale":[ 1.125, 1.125, 1.25 ]
        }
    }
}
