{
    "parent": "item/generated",
    "textures": {
        "layer0": "items/stone_pickaxe"
    },
    "display": {
        "thirdperson_righthand": {
            "rotation": [ 0, 0, 0 ],
            "translation": [ 0, 0.25, 0.0 ],
            "scale": [ 0.5, 0.5, 0.5 ]
        }
        }
    }
}
